<?xml version="1.0" encoding="UTF-8" standalone="no"?>
<!-- Created with Inkscape (http://www.inkscape.org/) -->

<svg
   width="16"
   height="16"
   viewBox="0 0 4.2333332 4.2333333"
   version="1.1"
   id="svg3526"
   sodipodi:docname="sk_line-symbolic.svg"
   inkscape:version="1.2.2 (b0a8486541, 2022-12-01)"
   xmlns:inkscape="http://www.inkscape.org/namespaces/inkscape"
   xmlns:sodipodi="http://sodipodi.sourceforge.net/DTD/sodipodi-0.dtd"
   xmlns="http://www.w3.org/2000/svg"
   xmlns:svg="http://www.w3.org/2000/svg">
  <sodipodi:namedview
     id="namedview3528"
     pagecolor="#ffffff"
     bordercolor="#000000"
     borderopacity="0.25"
     inkscape:showpageshadow="2"
     inkscape:pageopacity="0.0"
     inkscape:pagecheckerboard="0"
     inkscape:deskcolor="#d1d1d1"
     inkscape:document-units="px"
     showgrid="false"
     inkscape:zoom="40.776348"
     inkscape:cx="3.2862187"
     inkscape:cy="6.032909"
     inkscape:window-width="1920"
     inkscape:window-height="995"
     inkscape:window-x="0"
     inkscape:window-y="0"
     inkscape:window-maximized="1"
     inkscape:current-layer="layer1" />
  <defs
     id="defs3523" />
  <g
     inkscape:label="Layer 1"
     inkscape:groupmode="layer"
     id="layer1">
    <g
       id="g4177"
       transform="rotate(-45,2.1166666,2.1166666)">
      <rect
         style="fill:#000000;fill-opacity:0.8;stroke-width:0.1"
         id="rect3647"
         width="4.7624998"
         height="0.52916664"
         x="-0.26458329"
         y="1.8520833"
         rx="0.26458332" />
      <circle
         style="fill:#000000;fill-opacity:1;stroke-width:0.1"
         id="path4118"
         cx="-8.6994172e-09"
         cy="2.1166666"
         r="0.26458332" />
      <circle
         style="fill:#000000;fill-opacity:1;stroke-width:0.1"
         id="circle4172"
         cx="4.2333331"
         cy="2.1166666"
         r="0.26458332" />
    </g>
  </g>
</svg>
